[
    {
        "name": "yiisoft/yii2-composer",
        "version": "2.0.3",
        "version_normalized": "2.0.3.0",
        "source": {
            "type": "git",
            "url": "https://github.com/yiisoft/yii2-composer.git",
            "reference": "ca8d23707ae47d20b0454e4b135c156f6da6d7be"
        },
        "dist": {
            "type": "zip",
            "url": "https://api.github.com/repos/yiisoft/yii2-composer/zipball/ca8d23707ae47d20b0454e4b135c156f6da6d7be",
            "reference": "ca8d23707ae47d20b0454e4b135c156f6da6d7be",
            "shasum": ""
        },
        "require": {
            "composer-plugin-api": "1.0.0"
        },
        "time": "2015-03-01 06:22:44",
        "type": "composer-plugin",
        "extra": {
            "class": "yii\\composer\\Plugin",
            "branch-alias": {
                "dev-master": "2.0.x-dev"
            }
        },
        "installation-source": "dist",
        "autoload": {
            "psr-4": {
                "yii\\composer\\": ""
            }
        },
        "notification-url": "https://packagist.org/downloads/",
        "license": [
            "BSD-3-Clause"
        ],
        "authors": [
            {
                "name": "Qiang Xue",
                "email": "qiang.xue@gmail.com"
            }
        ],
        "description": "The composer plugin for Yii extension installer",
        "keywords": [
            "composer",
            "extension installer",
            "yii2"
        ]
    },
    {
        "name": "ezyang/htmlpurifier",
        "version": "v4.6.0",
        "version_normalized": "4.6.0.0",
        "source": {
            "type": "git",
            "url": "https://github.com/ezyang/htmlpurifier.git",
            "reference": "6f389f0f25b90d0b495308efcfa073981177f0fd"
        },
        "dist": {
            "type": "zip",
            "url": "https://api.github.com/repos/ezyang/htmlpurifier/zipball/6f389f0f25b90d0b495308efcfa073981177f0fd",
            "reference": "6f389f0f25b90d0b495308efcfa073981177f0fd",
            "shasum": ""
        },
        "require": {
            "php": ">=5.2"
        },
        "time": "2013-11-30 08:25:19",
        "type": "library",
        "installation-source": "dist",
        "autoload": {
            "psr-0": {
                "HTMLPurifier": "library/"
            },
            "files": [
                "library/HTMLPurifier.composer.php"
            ]
        },
        "notification-url": "https://packagist.org/downloads/",
        "license": [
            "LGPL"
        ],
        "authors": [
            {
                "name": "Edward Z. Yang",
                "email": "admin@htmlpurifier.org",
                "homepage": "http://ezyang.com"
            }
        ],
        "description": "Standards compliant HTML filter written in PHP",
        "homepage": "http://htmlpurifier.org/",
        "keywords": [
            "html"
        ]
    },
    {
        "name": "cebe/markdown",
        "version": "1.1.0",
        "version_normalized": "1.1.0.0",
        "source": {
            "type": "git",
            "url": "https://github.com/cebe/markdown.git",
            "reference": "54a2c49de31cc44e864ebf0500a35ef21d0010b2"
        },
        "dist": {
            "type": "zip",
            "url": "https://api.github.com/repos/cebe/markdown/zipball/54a2c49de31cc44e864ebf0500a35ef21d0010b2",
            "reference": "54a2c49de31cc44e864ebf0500a35ef21d0010b2",
            "shasum": ""
        },
        "require": {
            "lib-pcre": "*",
            "php": ">=5.4.0"
        },
        "require-dev": {
            "cebe/indent": "*",
            "facebook/xhprof": "*@dev",
            "phpunit/phpunit": "4.1.*"
        },
        "time": "2015-03-06 05:28:07",
        "bin": [
            "bin/markdown"
        ],
        "type": "library",
        "extra": {
            "branch-alias": {
                "dev-master": "1.1.x-dev"
            }
        },
        "installation-source": "dist",
        "autoload": {
            "psr-4": {
                "cebe\\markdown\\": ""
            }
        },
        "notification-url": "https://packagist.org/downloads/",
        "license": [
            "MIT"
        ],
        "authors": [
            {
                "name": "Carsten Brandt",
                "email": "mail@cebe.cc",
                "homepage": "http://cebe.cc/",
                "role": "Creator"
            }
        ],
        "description": "A super fast, highly extensible markdown parser for PHP",
        "homepage": "https://github.com/cebe/markdown#readme",
        "keywords": [
            "extensible",
            "fast",
            "gfm",
            "markdown",
            "markdown-extra"
        ]
    },
    {
        "name": "bower-asset/jquery",
        "version": "2.1.4",
        "version_normalized": "2.1.4.0",
        "source": {
            "type": "git",
            "url": "https://github.com/jquery/jquery-dist.git",
            "reference": "7751e69b615c6eca6f783a81e292a55725af6b85"
        },
        "dist": {
            "type": "zip",
            "url": "https://api.github.com/repos/jquery/jquery-dist/zipball/7751e69b615c6eca6f783a81e292a55725af6b85",
            "reference": "7751e69b615c6eca6f783a81e292a55725af6b85",
            "shasum": ""
        },
        "require-dev": {
            "bower-asset/qunit": "1.14.0",
            "bower-asset/requirejs": "2.1.10",
            "bower-asset/sinon": "1.8.1",
            "bower-asset/sizzle": "2.1.1-patch2"
        },
        "type": "bower-asset-library",
        "extra": {
            "bower-asset-main": "dist/jquery.js",
            "bower-asset-ignore": [
                "**/.*",
                "build",
                "dist/cdn",
                "speed",
                "test",
                "*.md",
                "AUTHORS.txt",
                "Gruntfile.js",
                "package.json"
            ]
        },
        "installation-source": "dist",
        "license": [
            "MIT"
        ],
        "keywords": [
            "javascript",
            "jquery",
            "library"
        ]
    },
    {
        "name": "bower-asset/jquery.inputmask",
        "version": "3.1.63",
        "version_normalized": "3.1.63.0",
        "source": {
            "type": "git",
            "url": "https://github.com/RobinHerbots/jquery.inputmask.git",
            "reference": "c40c7287eadc31e341ebbf0c02352eb55b9cbc48"
        },
        "dist": {
            "type": "zip",
            "url": "https://api.github.com/repos/RobinHerbots/jquery.inputmask/zipball/c40c7287eadc31e341ebbf0c02352eb55b9cbc48",
            "reference": "c40c7287eadc31e341ebbf0c02352eb55b9cbc48",
            "shasum": ""
        },
        "require": {
            "bower-asset/jquery": ">=1.7"
        },
        "type": "bower-asset-library",
        "extra": {
            "bower-asset-main": [
                "./dist/inputmask/jquery.inputmask.js",
                "./dist/inputmask/jquery.inputmask.extensions.js",
                "./dist/inputmask/jquery.inputmask.date.extensions.js",
                "./dist/inputmask/jquery.inputmask.numeric.extensions.js",
                "./dist/inputmask/jquery.inputmask.phone.extensions.js",
                "./dist/inputmask/jquery.inputmask.regex.extensions.js"
            ],
            "bower-asset-ignore": [
                "**/.*",
                "qunit/",
                "nuget/",
                "tools/",
                "js/",
                "*.md",
                "build.properties",
                "build.xml",
                "jquery.inputmask.jquery.json"
            ]
        },
        "installation-source": "dist",
        "license": [
            "http://opensource.org/licenses/mit-license.php"
        ],
        "description": "jquery.inputmask is a jquery plugin which create an input mask.",
        "keywords": [
            "form",
            "input",
            "inputmask",
            "jquery",
            "mask",
            "plugins"
        ]
    },
    {
        "name": "bower-asset/punycode",
        "version": "v1.3.2",
        "version_normalized": "1.3.2.0",
        "source": {
            "type": "git",
            "url": "https://github.com/bestiejs/punycode.js.git",
            "reference": "38c8d3131a82567bfef18da09f7f4db68c84f8a3"
        },
        "dist": {
            "type": "zip",
            "url": "https://api.github.com/repos/bestiejs/punycode.js/zipball/38c8d3131a82567bfef18da09f7f4db68c84f8a3",
            "reference": "38c8d3131a82567bfef18da09f7f4db68c84f8a3",
            "shasum": ""
        },
        "type": "bower-asset-library",
        "extra": {
            "bower-asset-main": "punycode.js",
            "bower-asset-ignore": [
                "coverage",
                "tests",
                ".*",
                "component.json",
                "Gruntfile.js",
                "node_modules",
                "package.json"
            ]
        },
        "installation-source": "dist"
    },
    {
        "name": "bower-asset/yii2-pjax",
        "version": "v2.0.5",
        "version_normalized": "2.0.5.0",
        "source": {
            "type": "git",
            "url": "https://github.com/yiisoft/jquery-pjax.git",
            "reference": "6818718408086db6bdcf33649cecb86b6b4f9b67"
        },
        "dist": {
            "type": "zip",
            "url": "https://api.github.com/repos/yiisoft/jquery-pjax/zipball/6818718408086db6bdcf33649cecb86b6b4f9b67",
            "reference": "6818718408086db6bdcf33649cecb86b6b4f9b67",
            "shasum": ""
        },
        "require": {
            "bower-asset/jquery": ">=1.8"
        },
        "type": "bower-asset-library",
        "extra": {
            "bower-asset-main": "./jquery.pjax.js",
            "bower-asset-ignore": [
                ".travis.yml",
                "Gemfile",
                "Gemfile.lock",
                "vendor/",
                "script/",
                "test/"
            ]
        },
        "installation-source": "dist",
        "license": [
            "MIT"
        ]
    },
    {
        "name": "yiisoft/yii2",
        "version": "2.0.6",
        "version_normalized": "2.0.6.0",
        "source": {
            "type": "git",
            "url": "https://github.com/yiisoft/yii2-framework.git",
            "reference": "f42b2eb80f61992438661b01d0d74c6738e2ff38"
        },
        "dist": {
            "type": "zip",
            "url": "https://api.github.com/repos/yiisoft/yii2-framework/zipball/f42b2eb80f61992438661b01d0d74c6738e2ff38",
            "reference": "f42b2eb80f61992438661b01d0d74c6738e2ff38",
            "shasum": ""
        },
        "require": {
            "bower-asset/jquery": "2.1.*@stable | 1.11.*@stable",
            "bower-asset/jquery.inputmask": "3.1.*",
            "bower-asset/punycode": "1.3.*",
            "bower-asset/yii2-pjax": ">=2.0.1",
            "cebe/markdown": "~1.0.0 | ~1.1.0",
            "ext-mbstring": "*",
            "ezyang/htmlpurifier": "4.6.*",
            "lib-pcre": "*",
            "php": ">=5.4.0",
            "yiisoft/yii2-composer": "*"
        },
        "time": "2015-08-05 22:00:30",
        "bin": [
            "yii"
        ],
        "type": "library",
        "extra": {
            "branch-alias": {
                "dev-master": "2.0.x-dev"
            }
        },
        "installation-source": "dist",
        "autoload": {
            "psr-4": {
                "yii\\": ""
            }
        },
        "notification-url": "https://packagist.org/downloads/",
        "license": [
            "BSD-3-Clause"
        ],
        "authors": [
            {
                "name": "Qiang Xue",
                "email": "qiang.xue@gmail.com",
                "homepage": "http://www.yiiframework.com/",
                "role": "Founder and project lead"
            },
            {
                "name": "Alexander Makarov",
                "email": "sam@rmcreative.ru",
                "homepage": "http://rmcreative.ru/",
                "role": "Core framework development"
            },
            {
                "name": "Maurizio Domba",
                "homepage": "http://mdomba.info/",
                "role": "Core framework development"
            },
            {
                "name": "Carsten Brandt",
                "email": "mail@cebe.cc",
                "homepage": "http://cebe.cc/",
                "role": "Core framework development"
            },
            {
                "name": "Timur Ruziev",
                "email": "resurtm@gmail.com",
                "homepage": "http://resurtm.com/",
                "role": "Core framework development"
            },
            {
                "name": "Paul Klimov",
                "email": "klimov.paul@gmail.com",
                "role": "Core framework development"
            }
        ],
        "description": "Yii PHP Framework Version 2",
        "homepage": "http://www.yiiframework.com/",
        "keywords": [
            "framework",
            "yii2"
        ]
    },
    {
        "name": "swiftmailer/swiftmailer",
        "version": "v5.4.1",
        "version_normalized": "5.4.1.0",
        "source": {
            "type": "git",
            "url": "https://github.com/swiftmailer/swiftmailer.git",
            "reference": "0697e6aa65c83edf97bb0f23d8763f94e3f11421"
        },
        "dist": {
            "type": "zip",
            "url": "https://api.github.com/repos/swiftmailer/swiftmailer/zipball/0697e6aa65c83edf97bb0f23d8763f94e3f11421",
            "reference": "0697e6aa65c83edf97bb0f23d8763f94e3f11421",
            "shasum": ""
        },
        "require": {
            "php": ">=5.3.3"
        },
        "require-dev": {
            "mockery/mockery": "~0.9.1,<0.9.4"
        },
        "time": "2015-06-06 14:19:39",
        "type": "library",
        "extra": {
            "branch-alias": {
                "dev-master": "5.4-dev"
            }
        },
        "installation-source": "dist",
        "autoload": {
            "files": [
                "lib/swift_required.php"
            ]
        },
        "notification-url": "https://packagist.org/downloads/",
        "license": [
            "MIT"
        ],
        "authors": [
            {
                "name": "Chris Corbyn"
            },
            {
                "name": "Fabien Potencier",
                "email": "fabien@symfony.com"
            }
        ],
        "description": "Swiftmailer, free feature-rich PHP mailer",
        "homepage": "http://swiftmailer.org",
        "keywords": [
            "email",
            "mail",
            "mailer"
        ]
    },
    {
        "name": "yiisoft/yii2-swiftmailer",
        "version": "2.0.4",
        "version_normalized": "2.0.4.0",
        "source": {
            "type": "git",
            "url": "https://github.com/yiisoft/yii2-swiftmailer.git",
            "reference": "4ec435a89e30b203cea99770910fb5499cb3627a"
        },
        "dist": {
            "type": "zip",
            "url": "https://api.github.com/repos/yiisoft/yii2-swiftmailer/zipball/4ec435a89e30b203cea99770910fb5499cb3627a",
            "reference": "4ec435a89e30b203cea99770910fb5499cb3627a",
            "shasum": ""
        },
        "require": {
            "swiftmailer/swiftmailer": "~5.0",
            "yiisoft/yii2": ">=2.0.4"
        },
        "time": "2015-05-10 22:12:32",
        "type": "yii2-extension",
        "extra": {
            "branch-alias": {
                "dev-master": "2.0.x-dev"
            }
        },
        "installation-source": "dist",
        "autoload": {
            "psr-4": {
                "yii\\swiftmailer\\": ""
            }
        },
        "notification-url": "https://packagist.org/downloads/",
        "license": [
            "BSD-3-Clause"
        ],
        "authors": [
            {
                "name": "Paul Klimov",
                "email": "klimov.paul@gmail.com"
            }
        ],
        "description": "The SwiftMailer integration for the Yii framework",
        "keywords": [
            "email",
            "mail",
            "mailer",
            "swift",
            "swiftmailer",
            "yii2"
        ]
    },
    {
        "name": "yiisoft/yii2-authclient",
        "version": "2.0.5",
        "version_normalized": "2.0.5.0",
        "source": {
            "type": "git",
            "url": "https://github.com/yiisoft/yii2-authclient.git",
            "reference": "22910bfe0000538f5b3ca1102cd3de0b5d14a0e2"
        },
        "dist": {
            "type": "zip",
            "url": "https://api.github.com/repos/yiisoft/yii2-authclient/zipball/22910bfe0000538f5b3ca1102cd3de0b5d14a0e2",
            "reference": "22910bfe0000538f5b3ca1102cd3de0b5d14a0e2",
            "shasum": ""
        },
        "require": {
            "ext-curl": "*",
            "yiisoft/yii2": ">=2.0.4"
        },
        "time": "2015-09-23 17:26:02",
        "type": "yii2-extension",
        "extra": {
            "branch-alias": {
                "dev-master": "2.0.x-dev"
            }
        },
        "installation-source": "dist",
        "autoload": {
            "psr-4": {
                "yii\\authclient\\": ""
            }
        },
        "notification-url": "https://packagist.org/downloads/",
        "license": [
            "BSD-3-Clause"
        ],
        "authors": [
            {
                "name": "Paul Klimov",
                "email": "klimov.paul@gmail.com"
            }
        ],
        "description": "External authentication via OAuth and OpenID for the Yii framework",
        "keywords": [
            "OpenId",
            "auth",
            "oauth",
            "yii2"
        ]
    },
    {
        "name": "yiisoft/yii2-sphinx",
        "version": "2.0.5",
        "version_normalized": "2.0.5.0",
        "source": {
            "type": "git",
            "url": "https://github.com/yiisoft/yii2-sphinx.git",
            "reference": "5ab9be322138ec76ddfd06ad77df1a5590816ed9"
        },
        "dist": {
            "type": "zip",
            "url": "https://api.github.com/repos/yiisoft/yii2-sphinx/zipball/5ab9be322138ec76ddfd06ad77df1a5590816ed9",
            "reference": "5ab9be322138ec76ddfd06ad77df1a5590816ed9",
            "shasum": ""
        },
        "require": {
            "ext-pdo": "*",
            "ext-pdo_mysql": "*",
            "yiisoft/yii2": ">=2.0.4"
        },
        "time": "2015-09-23 17:31:03",
        "type": "yii2-extension",
        "extra": {
            "branch-alias": {
                "dev-master": "2.0.x-dev"
            }
        },
        "installation-source": "dist",
        "autoload": {
            "psr-4": {
                "yii\\sphinx\\": ""
            }
        },
        "notification-url": "https://packagist.org/downloads/",
        "license": [
            "BSD-3-Clause"
        ],
        "authors": [
            {
                "name": "Paul Klimov",
                "email": "klimov.paul@gmail.com"
            }
        ],
        "description": "Sphinx full text search engine extension for the Yii framework",
        "keywords": [
            "active-record",
            "fulltext",
            "search",
            "sphinx",
            "yii2"
        ]
    },
    {
        "name": "yiisoft/yii2-redis",
        "version": "2.0.4",
        "version_normalized": "2.0.4.0",
        "source": {
            "type": "git",
            "url": "https://github.com/yiisoft/yii2-redis.git",
            "reference": "af2c2f91cd61c201c537d18f9c2338258c821918"
        },
        "dist": {
            "type": "zip",
            "url": "https://api.github.com/repos/yiisoft/yii2-redis/zipball/af2c2f91cd61c201c537d18f9c2338258c821918",
            "reference": "af2c2f91cd61c201c537d18f9c2338258c821918",
            "shasum": ""
        },
        "require": {
            "yiisoft/yii2": ">=2.0.4"
        },
        "time": "2015-05-10 22:10:19",
        "type": "yii2-extension",
        "extra": {
            "branch-alias": {
                "dev-master": "2.0.x-dev"
            }
        },
        "installation-source": "dist",
        "autoload": {
            "psr-4": {
                "yii\\redis\\": ""
            }
        },
        "notification-url": "https://packagist.org/downloads/",
        "license": [
            "BSD-3-Clause"
        ],
        "authors": [
            {
                "name": "Carsten Brandt",
                "email": "mail@cebe.cc"
            }
        ],
        "description": "Redis Cache, Session and ActiveRecord for the Yii framework",
        "keywords": [
            "active-record",
            "cache",
            "redis",
            "session",
            "yii2"
        ]
    },
    {
        "name": "yiisoft/yii2-elasticsearch",
        "version": "2.0.3",
        "version_normalized": "2.0.3.0",
        "source": {
            "type": "git",
            "url": "https://github.com/yiisoft/yii2-elasticsearch.git",
            "reference": "b6e74c25d58d8d87020671b74fa9c2b28032947c"
        },
        "dist": {
            "type": "zip",
            "url": "https://api.github.com/repos/yiisoft/yii2-elasticsearch/zipball/b6e74c25d58d8d87020671b74fa9c2b28032947c",
            "reference": "b6e74c25d58d8d87020671b74fa9c2b28032947c",
            "shasum": ""
        },
        "require": {
            "ext-curl": "*",
            "yiisoft/yii2": "*"
        },
        "time": "2015-03-01 06:22:44",
        "type": "yii2-extension",
        "extra": {
            "branch-alias": {
                "dev-master": "2.0.x-dev"
            }
        },
        "installation-source": "dist",
        "autoload": {
            "psr-4": {
                "yii\\elasticsearch\\": ""
            }
        },
        "notification-url": "https://packagist.org/downloads/",
        "license": [
            "BSD-3-Clause"
        ],
        "authors": [
            {
                "name": "Carsten Brandt",
                "email": "mail@cebe.cc"
            }
        ],
        "description": "Elasticsearch integration and ActiveRecord for the Yii framework",
        "keywords": [
            "active-record",
            "elasticsearch",
            "fulltext",
            "search",
            "yii2"
        ]
    },
    {
        "name": "imagine/imagine",
        "version": "v0.5.0",
        "version_normalized": "0.5.0.0",
        "source": {
            "type": "git",
            "url": "https://github.com/avalanche123/Imagine.git",
            "reference": "f64ec666baaa800edcbf237db41121a569230709"
        },
        "dist": {
            "type": "zip",
            "url": "https://api.github.com/repos/avalanche123/Imagine/zipball/f64ec666baaa800edcbf237db41121a569230709",
            "reference": "f64ec666baaa800edcbf237db41121a569230709",
            "shasum": ""
        },
        "require": {
            "php": ">=5.3.2"
        },
        "require-dev": {
            "sami/sami": "dev-master"
        },
        "suggest": {
            "ext-gd": "to use the GD implementation",
            "ext-gmagick": "to use the Gmagick implementation",
            "ext-imagick": "to use the Imagick implementation"
        },
        "time": "2013-07-10 17:25:36",
        "type": "library",
        "installation-source": "dist",
        "autoload": {
            "psr-0": {
                "Imagine": "lib/"
            }
        },
        "notification-url": "https://packagist.org/downloads/",
        "license": [
            "MIT"
        ],
        "authors": [
            {
                "name": "Bulat Shakirzyanov",
                "email": "mallluhuct@gmail.com",
                "homepage": "http://avalanche123.com"
            }
        ],
        "description": "Image processing for PHP 5.3",
        "homepage": "http://imagine.readthedocs.org/",
        "keywords": [
            "drawing",
            "graphics",
            "image manipulation",
            "image processing"
        ]
    },
    {
        "name": "yiisoft/yii2-imagine",
        "version": "2.0.3",
        "version_normalized": "2.0.3.0",
        "source": {
            "type": "git",
            "url": "https://github.com/yiisoft/yii2-imagine.git",
            "reference": "0961343138b65bba447de84b2b300899617e6acc"
        },
        "dist": {
            "type": "zip",
            "url": "https://api.github.com/repos/yiisoft/yii2-imagine/zipball/0961343138b65bba447de84b2b300899617e6acc",
            "reference": "0961343138b65bba447de84b2b300899617e6acc",
            "shasum": ""
        },
        "require": {
            "imagine/imagine": "0.5.*",
            "yiisoft/yii2": "*"
        },
        "time": "2015-03-01 06:22:44",
        "type": "yii2-extension",
        "extra": {
            "branch-alias": {
                "dev-master": "2.0.x-dev"
            }
        },
        "installation-source": "dist",
        "autoload": {
            "psr-4": {
                "yii\\imagine\\": ""
            }
        },
        "notification-url": "https://packagist.org/downloads/",
        "license": [
            "BSD-3-Clause"
        ],
        "authors": [
            {
                "name": "Antonio Ramirez",
                "email": "amigo.cobos@gmail.com"
            }
        ],
        "description": "The Imagine integration for the Yii framework",
        "keywords": [
            "helper",
            "image",
            "imagine",
            "yii2"
        ]
    },
    {
        "name": "vova07/yii2-imperavi-widget",
        "version": "1.2.10",
        "version_normalized": "1.2.10.0",
        "source": {
            "type": "git",
            "url": "https://github.com/vova07/yii2-imperavi-widget.git",
            "reference": "6835bfe3c6d77d00c3033a7f8a54e85ac446d5ac"
        },
        "dist": {
            "type": "zip",
            "url": "https://api.github.com/repos/vova07/yii2-imperavi-widget/zipball/6835bfe3c6d77d00c3033a7f8a54e85ac446d5ac",
            "reference": "6835bfe3c6d77d00c3033a7f8a54e85ac446d5ac",
            "shasum": ""
        },
        "require": {
            "yiisoft/yii2": "*"
        },
        "require-dev": {
            "mikey179/vfsstream": "~1",
            "phpunit/phpunit": "4.*",
            "scrutinizer/ocular": "~1.1"
        },
        "time": "2015-12-10 21:16:23",
        "type": "yii2-extension",
        "extra": {
            "branch-alias": {
                "dev-master": "1.0.x-dev"
            },
            "asset-installer-paths": {
                "bower-asset-library": "vendor/bower"
            }
        },
        "installation-source": "dist",
        "autoload": {
            "psr-4": {
                "vova07\\imperavi\\": "src"
            }
        },
        "notification-url": "https://packagist.org/downloads/",
        "license": [
            "BSD-3-Clause"
        ],
        "authors": [
            {
                "name": "Crudu Vasile",
                "email": "bazillio07@yandex.ru",
                "homepage": "https://github.com/vova07",
                "role": "Developer"
            }
        ],
        "description": "The imperavi redactor widget for Yii 2 framework.",
        "homepage": "https://github.com/vova07/yii2-imperavi-widget",
        "keywords": [
            "Redactor",
            "extension",
            "imperavi",
            "widget",
            "wysiwyg",
            "yii",
            "yii 2",
            "yii2"
        ]
    },
    {
        "name": "bower-asset/jqueryui-timepicker-addon",
        "version": "v1.6.1",
        "version_normalized": "1.6.1.0",
        "source": {
            "type": "git",
            "url": "https://github.com/trentrichardson/jQuery-Timepicker-Addon.git",
            "reference": "f66f23c9fb812a8cbe0435d714b8fd06973c18f9"
        },
        "dist": {
            "type": "zip",
            "url": "https://api.github.com/repos/trentrichardson/jQuery-Timepicker-Addon/zipball/f66f23c9fb812a8cbe0435d714b8fd06973c18f9",
            "reference": "f66f23c9fb812a8cbe0435d714b8fd06973c18f9",
            "shasum": ""
        },
        "type": "bower-asset-library",
        "extra": {
            "bower-asset-main": [
                "dist/jquery-ui-timepicker-addon.js",
                "dist/jquery-ui-timepicker-addon.css"
            ],
            "bower-asset-ignore": []
        },
        "installation-source": "dist"
    },
    {
        "name": "bower-asset/jquery-ui",
        "version": "1.11.4",
        "version_normalized": "1.11.4.0",
        "source": {
            "type": "git",
            "url": "https://github.com/components/jqueryui.git",
            "reference": "c34f8dbf3ba57b3784b93f26119f436c0e8288e1"
        },
        "dist": {
            "type": "zip",
            "url": "https://api.github.com/repos/components/jqueryui/zipball/c34f8dbf3ba57b3784b93f26119f436c0e8288e1",
            "reference": "c34f8dbf3ba57b3784b93f26119f436c0e8288e1",
            "shasum": ""
        },
        "require": {
            "bower-asset/jquery": ">=1.6"
        },
        "type": "bower-asset-library",
        "extra": {
            "bower-asset-main": [
                "jquery-ui.js"
            ],
            "bower-asset-ignore": []
        },
        "installation-source": "dist"
    },
    {
        "name": "yiisoft/yii2-jui",
        "version": "2.0.4",
        "version_normalized": "2.0.4.0",
        "source": {
            "type": "git",
            "url": "https://github.com/yiisoft/yii2-jui.git",
            "reference": "ce16f29cca654702c2ee500ccad9657a2d2e6a09"
        },
        "dist": {
            "type": "zip",
            "url": "https://api.github.com/repos/yiisoft/yii2-jui/zipball/ce16f29cca654702c2ee500ccad9657a2d2e6a09",
            "reference": "ce16f29cca654702c2ee500ccad9657a2d2e6a09",
            "shasum": ""
        },
        "require": {
            "bower-asset/jquery-ui": "1.11.*@stable",
            "yiisoft/yii2": ">=2.0.4"
        },
        "time": "2015-05-10 22:09:43",
        "type": "yii2-extension",
        "extra": {
            "branch-alias": {
                "dev-master": "2.0.x-dev"
            },
            "asset-installer-paths": {
                "npm-asset-library": "vendor/npm",
                "bower-asset-library": "vendor/bower"
            }
        },
        "installation-source": "dist",
        "autoload": {
            "psr-4": {
                "yii\\jui\\": ""
            }
        },
        "notification-url": "https://packagist.org/downloads/",
        "license": [
            "BSD-3-Clause"
        ],
        "authors": [
            {
                "name": "Qiang Xue",
                "email": "qiang.xue@gmail.com"
            }
        ],
        "description": "The Jquery UI extension for the Yii framework",
        "keywords": [
            "jQuery UI",
            "yii2"
        ]
    },
    {
        "name": "janisto/yii2-timepicker",
        "version": "1.1.0",
        "version_normalized": "1.1.0.0",
        "source": {
            "type": "git",
            "url": "https://github.com/janisto/yii2-timepicker.git",
            "reference": "91b3e8483404f0667eaa9fd73acf121a99494999"
        },
        "dist": {
            "type": "zip",
            "url": "https://api.github.com/repos/janisto/yii2-timepicker/zipball/91b3e8483404f0667eaa9fd73acf121a99494999",
            "reference": "91b3e8483404f0667eaa9fd73acf121a99494999",
            "shasum": ""
        },
        "require": {
            "bower-asset/jqueryui-timepicker-addon": ">=1.5.2",
            "php": ">=5.4.0",
            "yiisoft/yii2": "*",
            "yiisoft/yii2-jui": ">=2.0.4"
        },
        "require-dev": {
            "phpunit/phpunit": "~4.5",
            "scrutinizer/ocular": "~1.1"
        },
        "time": "2015-11-12 10:16:09",
        "type": "yii2-extension",
        "extra": {
            "asset-installer-paths": {
                "bower-asset-library": "vendor/bower"
            }
        },
        "installation-source": "dist",
        "autoload": {
            "psr-4": {
                "janisto\\timepicker\\": "src"
            }
        },
        "notification-url": "https://packagist.org/downloads/",
        "license": [
            "public domain"
        ],
        "authors": [
            {
                "name": "Jani Mikkonen",
                "email": "janisto@php.net"
            }
        ],
        "description": "Yii 2 widget for jQuery Timepicker Addon.",
        "homepage": "https://github.com/janisto/yii2-timepicker",
        "keywords": [
            "date",
            "datetime",
            "extension",
            "time",
            "timepicker",
            "widget",
            "yii2"
        ]
    },
    {
        "name": "samdark/sitemap",
        "version": "2.0.2",
        "version_normalized": "2.0.2.0",
        "source": {
            "type": "git",
            "url": "https://github.com/samdark/sitemap.git",
            "reference": "da76edbef6383060c2d08523ae1b07f61b89a3fc"
        },
        "dist": {
            "type": "zip",
            "url": "https://api.github.com/repos/samdark/sitemap/zipball/da76edbef6383060c2d08523ae1b07f61b89a3fc",
            "reference": "da76edbef6383060c2d08523ae1b07f61b89a3fc",
            "shasum": ""
        },
        "require": {
            "php": ">=5.4.0"
        },
        "time": "2015-07-14 07:10:08",
        "type": "library",
        "installation-source": "dist",
        "autoload": {
            "psr-4": {
                "samdark\\sitemap\\": ""
            }
        },
        "notification-url": "https://packagist.org/downloads/",
        "license": [
            "BSD-3-Clause"
        ],
        "authors": [
            {
                "name": "Alexander Makarov",
                "email": "sam@rmcreative.ru",
                "homepage": "http://rmcreative.ru/"
            }
        ],
        "description": "Sitemap and sitemap index builder",
        "homepage": "https://github.com/samdark/sitemap",
        "keywords": [
            "Sitemap"
        ]
    },
    {
        "name": "yiisoft/yii2-codeception",
        "version": "2.0.4",
        "version_normalized": "2.0.4.0",
        "source": {
            "type": "git",
            "url": "https://github.com/yiisoft/yii2-codeception.git",
            "reference": "de5007e7a99359597abbfe1c88dca3ce620061c5"
        },
        "dist": {
            "type": "zip",
            "url": "https://api.github.com/repos/yiisoft/yii2-codeception/zipball/de5007e7a99359597abbfe1c88dca3ce620061c5",
            "reference": "de5007e7a99359597abbfe1c88dca3ce620061c5",
            "shasum": ""
        },
        "require": {
            "yiisoft/yii2": ">=2.0.4"
        },
        "time": "2015-05-10 22:08:30",
        "type": "yii2-extension",
        "extra": {
            "branch-alias": {
                "dev-master": "2.0.x-dev"
            }
        },
        "installation-source": "dist",
        "autoload": {
            "psr-4": {
                "yii\\codeception\\": ""
            }
        },
        "notification-url": "https://packagist.org/downloads/",
        "license": [
            "BSD-3-Clause"
        ],
        "authors": [
            {
                "name": "Mark Jebri",
                "email": "mark.github@yandex.ru"
            }
        ],
        "description": "The Codeception integration for the Yii framework",
        "keywords": [
            "codeception",
            "yii2"
        ]
    },
    {
        "name": "bower-asset/bootstrap",
        "version": "v3.3.5",
        "version_normalized": "3.3.5.0",
        "source": {
            "type": "git",
            "url": "https://github.com/twbs/bootstrap.git",
            "reference": "16b48259a62f576e52c903c476bd42b90ab22482"
        },
        "dist": {
            "type": "zip",
            "url": "https://api.github.com/repos/twbs/bootstrap/zipball/16b48259a62f576e52c903c476bd42b90ab22482",
            "reference": "16b48259a62f576e52c903c476bd42b90ab22482",
            "shasum": ""
        },
        "require": {
            "bower-asset/jquery": ">=1.9.1"
        },
        "type": "bower-asset-library",
        "extra": {
            "bower-asset-main": [
                "less/bootstrap.less",
                "dist/js/bootstrap.js"
            ],
            "bower-asset-ignore": [
                "/.*",
                "_config.yml",
                "CNAME",
                "composer.json",
                "CONTRIBUTING.md",
                "docs",
                "js/tests",
                "test-infra"
            ]
        },
        "installation-source": "dist",
        "license": [
            "MIT"
        ],
        "description": "The most popular front-end framework for developing responsive, mobile first projects on the web.",
        "keywords": [
            "css",
            "framework",
            "front-end",
            "js",
            "less",
            "mobile-first",
            "responsive",
            "web"
        ]
    },
    {
        "name": "yiisoft/yii2-bootstrap",
        "version": "2.0.5",
        "version_normalized": "2.0.5.0",
        "source": {
            "type": "git",
            "url": "https://github.com/yiisoft/yii2-bootstrap.git",
            "reference": "1464f93834b1d5edb1f5625f7ffd6c3723fa4923"
        },
        "dist": {
            "type": "zip",
            "url": "https://api.github.com/repos/yiisoft/yii2-bootstrap/zipball/1464f93834b1d5edb1f5625f7ffd6c3723fa4923",
            "reference": "1464f93834b1d5edb1f5625f7ffd6c3723fa4923",
            "shasum": ""
        },
        "require": {
            "bower-asset/bootstrap": "3.3.* | 3.2.* | 3.1.*",
            "yiisoft/yii2": ">=2.0.6"
        },
        "time": "2015-09-23 17:48:24",
        "type": "yii2-extension",
        "extra": {
            "branch-alias": {
                "dev-master": "2.0.x-dev"
            },
            "asset-installer-paths": {
                "npm-asset-library": "vendor/npm",
                "bower-asset-library": "vendor/bower"
            }
        },
        "installation-source": "dist",
        "autoload": {
            "psr-4": {
                "yii\\bootstrap\\": ""
            }
        },
        "notification-url": "https://packagist.org/downloads/",
        "license": [
            "BSD-3-Clause"
        ],
        "authors": [
            {
                "name": "Qiang Xue",
                "email": "qiang.xue@gmail.com"
            }
        ],
        "description": "The Twitter Bootstrap extension for the Yii framework",
        "keywords": [
            "bootstrap",
            "yii2"
        ]
    },
    {
        "name": "yiisoft/yii2-debug",
        "version": "2.0.5",
        "version_normalized": "2.0.5.0",
        "source": {
            "type": "git",
            "url": "https://github.com/yiisoft/yii2-debug.git",
            "reference": "1b302e67521d46feb2413d9d96ca94ed82b39b0e"
        },
        "dist": {
            "type": "zip",
            "url": "https://api.github.com/repos/yiisoft/yii2-debug/zipball/1b302e67521d46feb2413d9d96ca94ed82b39b0e",
            "reference": "1b302e67521d46feb2413d9d96ca94ed82b39b0e",
            "shasum": ""
        },
        "require": {
            "yiisoft/yii2": ">=2.0.4",
            "yiisoft/yii2-bootstrap": "*"
        },
        "time": "2015-08-06 16:14:06",
        "type": "yii2-extension",
        "extra": {
            "branch-alias": {
                "dev-master": "2.0.x-dev"
            }
        },
        "installation-source": "dist",
        "autoload": {
            "psr-4": {
                "yii\\debug\\": ""
            }
        },
        "notification-url": "https://packagist.org/downloads/",
        "license": [
            "BSD-3-Clause"
        ],
        "authors": [
            {
                "name": "Qiang Xue",
                "email": "qiang.xue@gmail.com"
            }
        ],
        "description": "The debugger extension for the Yii framework",
        "keywords": [
            "debug",
            "debugger",
            "yii2"
        ]
    },
    {
        "name": "bower-asset/typeahead.js",
        "version": "v0.10.5",
        "version_normalized": "0.10.5.0",
        "source": {
            "type": "git",
            "url": "https://github.com/twitter/typeahead.js.git",
            "reference": "5f198b87d1af845da502ea9df93a5e84801ce742"
        },
        "dist": {
            "type": "zip",
            "url": "https://api.github.com/repos/twitter/typeahead.js/zipball/5f198b87d1af845da502ea9df93a5e84801ce742",
            "reference": "5f198b87d1af845da502ea9df93a5e84801ce742",
            "shasum": ""
        },
        "require": {
            "bower-asset/jquery": ">=1.7"
        },
        "require-dev": {
            "bower-asset/jasmine-ajax": "~1.3.1",
            "bower-asset/jasmine-jquery": "~1.5.2",
            "bower-asset/jquery": "~1.7"
        },
        "type": "bower-asset-library",
        "extra": {
            "bower-asset-main": "dist/typeahead.bundle.js"
        },
        "installation-source": "dist"
    },
    {
        "name": "phpspec/php-diff",
        "version": "v1.0.2",
        "version_normalized": "1.0.2.0",
        "source": {
            "type": "git",
            "url": "https://github.com/phpspec/php-diff.git",
            "reference": "30e103d19519fe678ae64a60d77884ef3d71b28a"
        },
        "dist": {
            "type": "zip",
            "url": "https://api.github.com/repos/phpspec/php-diff/zipball/30e103d19519fe678ae64a60d77884ef3d71b28a",
            "reference": "30e103d19519fe678ae64a60d77884ef3d71b28a",
            "shasum": ""
        },
        "time": "2013-11-01 13:02:21",
        "type": "library",
        "installation-source": "dist",
        "autoload": {
            "psr-0": {
                "Diff": "lib/"
            }
        },
        "notification-url": "https://packagist.org/downloads/",
        "license": [
            "BSD-3-Clause"
        ],
        "authors": [
            {
                "name": "Chris Boulton",
                "homepage": "http://github.com/chrisboulton",
                "role": "Original developer"
            }
        ],
        "description": "A comprehensive library for generating differences between two hashable objects (strings or arrays)."
    },
    {
        "name": "yiisoft/yii2-gii",
        "version": "2.0.4",
        "version_normalized": "2.0.4.0",
        "source": {
            "type": "git",
            "url": "https://github.com/yiisoft/yii2-gii.git",
            "reference": "e5a023e8779bd774194842ec1b8fb4917cf04007"
        },
        "dist": {
            "type": "zip",
            "url": "https://api.github.com/repos/yiisoft/yii2-gii/zipball/e5a023e8779bd774194842ec1b8fb4917cf04007",
            "reference": "e5a023e8779bd774194842ec1b8fb4917cf04007",
            "shasum": ""
        },
        "require": {
            "bower-asset/typeahead.js": "0.10.*",
            "phpspec/php-diff": ">=1.0.2",
            "yiisoft/yii2": ">=2.0.4",
            "yiisoft/yii2-bootstrap": "~2.0"
        },
        "time": "2015-05-10 22:09:31",
        "type": "yii2-extension",
        "extra": {
            "branch-alias": {
                "dev-master": "2.0.x-dev"
            },
            "asset-installer-paths": {
                "npm-asset-library": "vendor/npm",
                "bower-asset-library": "vendor/bower"
            }
        },
        "installation-source": "dist",
        "autoload": {
            "psr-4": {
                "yii\\gii\\": ""
            }
        },
        "notification-url": "https://packagist.org/downloads/",
        "license": [
            "BSD-3-Clause"
        ],
        "authors": [
            {
                "name": "Qiang Xue",
                "email": "qiang.xue@gmail.com"
            }
        ],
        "description": "The Gii extension for the Yii framework",
        "keywords": [
            "code generator",
            "gii",
            "yii2"
        ]
    },
    {
        "name": "fzaninotto/faker",
        "version": "v1.5.0",
        "version_normalized": "1.5.0.0",
        "source": {
            "type": "git",
            "url": "https://github.com/fzaninotto/Faker.git",
            "reference": "d0190b156bcca848d401fb80f31f504f37141c8d"
        },
        "dist": {
            "type": "zip",
            "url": "https://api.github.com/repos/fzaninotto/Faker/zipball/d0190b156bcca848d401fb80f31f504f37141c8d",
            "reference": "d0190b156bcca848d401fb80f31f504f37141c8d",
            "shasum": ""
        },
        "require": {
            "php": ">=5.3.3"
        },
        "require-dev": {
            "phpunit/phpunit": "~4.0",
            "squizlabs/php_codesniffer": "~1.5"
        },
        "suggest": {
            "ext-intl": "*"
        },
        "time": "2015-05-29 06:29:14",
        "type": "library",
        "extra": {
            "branch-alias": {
                "dev-master": "1.5.x-dev"
            }
        },
        "installation-source": "dist",
        "autoload": {
            "psr-4": {
                "Faker\\": "src/Faker/"
            }
        },
        "notification-url": "https://packagist.org/downloads/",
        "license": [
            "MIT"
        ],
        "authors": [
            {
                "name": "François Zaninotto"
            }
        ],
        "description": "Faker is a PHP library that generates fake data for you.",
        "keywords": [
            "data",
            "faker",
            "fixtures"
        ]
    },
    {
        "name": "yiisoft/yii2-faker",
        "version": "2.0.3",
        "version_normalized": "2.0.3.0",
        "source": {
            "type": "git",
            "url": "https://github.com/yiisoft/yii2-faker.git",
            "reference": "b88ca69ee226a3610b2c26c026c3203d7ac50f6c"
        },
        "dist": {
            "type": "zip",
            "url": "https://api.github.com/repos/yiisoft/yii2-faker/zipball/b88ca69ee226a3610b2c26c026c3203d7ac50f6c",
            "reference": "b88ca69ee226a3610b2c26c026c3203d7ac50f6c",
            "shasum": ""
        },
        "require": {
            "fzaninotto/faker": "*",
            "yiisoft/yii2": "*"
        },
        "time": "2015-03-01 06:22:44",
        "type": "yii2-extension",
        "extra": {
            "branch-alias": {
                "dev-master": "2.0.x-dev"
            }
        },
        "installation-source": "dist",
        "autoload": {
            "psr-4": {
                "yii\\faker\\": ""
            }
        },
        "notification-url": "https://packagist.org/downloads/",
        "license": [
            "BSD-3-Clause"
        ],
        "authors": [
            {
                "name": "Mark Jebri",
                "email": "mark.github@yandex.ru"
            }
        ],
        "description": "Fixture generator. The Faker integration for the Yii framework.",
        "keywords": [
            "Fixture",
            "faker",
            "yii2"
        ]
    },
    {
        "name": "kartik-v/bootstrap-popover-x",
        "version": "v1.4.1",
        "version_normalized": "1.4.1.0",
        "source": {
            "type": "git",
            "url": "https://github.com/kartik-v/bootstrap-popover-x.git",
            "reference": "ce1d165af25f6e6caaf97083e20b5a3ad7c7b7c6"
        },
        "dist": {
            "type": "zip",
            "url": "https://api.github.com/repos/kartik-v/bootstrap-popover-x/zipball/ce1d165af25f6e6caaf97083e20b5a3ad7c7b7c6",
            "reference": "ce1d165af25f6e6caaf97083e20b5a3ad7c7b7c6",
            "shasum": ""
        },
        "time": "2015-03-18 13:08:39",
        "type": "library",
        "installation-source": "dist",
        "autoload": {
            "psr-4": {
                "kartik\\plugins\\popover\\": ""
            }
        },
        "notification-url": "https://packagist.org/downloads/",
        "license": [
            "BSD 3-Clause"
        ],
        "authors": [
            {
                "name": "Kartik Visweswaran",
                "email": "kartikv2@gmail.com",
                "homepage": "http://www.krajee.com/"
            }
        ],
        "description": "Bootstrap Popover Extended - Popover with modal behavior, styling enhancements and more.",
        "homepage": "https://github.com/kartik-v/bootstrap-popover-x",
        "keywords": [
            "bootstrap",
            "extended",
            "jquery",
            "modal",
            "modal-popover",
            "popover",
            "popover-x"
        ]
    },
    {
        "name": "kartik-v/yii2-krajee-base",
        "version": "1.8.2",
        "version_normalized": "1.8.2.0",
        "source": {
            "type": "git",
            "url": "https://github.com/kartik-v/yii2-krajee-base.git",
            "reference": "0c274e31e4392cbafc5fe158eae81738794e02ce"
        },
        "dist": {
            "type": "zip",
            "url": "https://api.github.com/repos/kartik-v/yii2-krajee-base/zipball/0c274e31e4392cbafc5fe158eae81738794e02ce",
            "reference": "0c274e31e4392cbafc5fe158eae81738794e02ce",
            "shasum": ""
        },
        "require": {
            "yiisoft/yii2-bootstrap": "@dev"
        },
        "time": "2016-01-10 12:26:29",
        "type": "yii2-extension",
        "installation-source": "dist",
        "autoload": {
            "psr-4": {
                "kartik\\base\\": ""
            }
        },
        "notification-url": "https://packagist.org/downloads/",
        "license": [
            "BSD-3-Clause"
        ],
        "authors": [
            {
                "name": "Kartik Visweswaran",
                "email": "kartikv2@gmail.com",
                "homepage": "http://www.krajee.com/"
            }
        ],
        "description": "Base library and foundation components for all Yii2 Krajee extensions.",
        "homepage": "https://github.com/kartik-v/yii2-krajee-base",
        "keywords": [
            "base",
            "extension",
            "foundation",
            "krajee",
            "widget",
            "yii2"
        ]
    },
    {
        "name": "kartik-v/yii2-popover-x",
        "version": "v1.3.3",
        "version_normalized": "1.3.3.0",
        "source": {
            "type": "git",
            "url": "https://github.com/kartik-v/yii2-popover-x.git",
            "reference": "38f2208cf92f8c4a7758f485575a881cade1970c"
        },
        "dist": {
            "type": "zip",
            "url": "https://api.github.com/repos/kartik-v/yii2-popover-x/zipball/38f2208cf92f8c4a7758f485575a881cade1970c",
            "reference": "38f2208cf92f8c4a7758f485575a881cade1970c",
            "shasum": ""
        },
        "require": {
            "kartik-v/bootstrap-popover-x": "~1.4",
            "kartik-v/yii2-krajee-base": "~1.7"
        },
        "time": "2016-01-12 16:59:09",
        "type": "yii2-extension",
        "installation-source": "dist",
        "autoload": {
            "psr-4": {
                "kartik\\popover\\": ""
            }
        },
        "notification-url": "https://packagist.org/downloads/",
        "license": [
            "BSD-3-Clause"
        ],
        "authors": [
            {
                "name": "Kartik Visweswaran",
                "email": "kartikv2@gmail.com",
                "homepage": "http://www.krajee.com/"
            }
        ],
        "description": "An extended bootstrap 3.0 popover widget which combines both the bootstrap popover and modal features and includes various new styling enhancements.",
        "homepage": "https://github.com/kartik-v/yii2-popover-x",
        "keywords": [
            "bootstrap",
            "extended",
            "jquery",
            "modal",
            "modal-popover",
            "popover",
            "popover-x"
        ]
    },
    {
        "name": "kartik-v/yii2-editable",
        "version": "v1.7.2",
        "version_normalized": "1.7.2.0",
        "source": {
            "type": "git",
            "url": "https://github.com/kartik-v/yii2-editable.git",
            "reference": "eddb718d49fe4b21f9b50457066a4091b5a72a4a"
        },
        "dist": {
            "type": "zip",
            "url": "https://api.github.com/repos/kartik-v/yii2-editable/zipball/eddb718d49fe4b21f9b50457066a4091b5a72a4a",
            "reference": "eddb718d49fe4b21f9b50457066a4091b5a72a4a",
            "shasum": ""
        },
        "require": {
            "kartik-v/yii2-krajee-base": "*",
            "kartik-v/yii2-popover-x": "*"
        },
        "time": "2015-03-29 14:10:03",
        "type": "yii2-extension",
        "installation-source": "dist",
        "autoload": {
            "psr-4": {
                "kartik\\editable\\": ""
            }
        },
        "notification-url": "https://packagist.org/downloads/",
        "license": [
            "BSD 3-Clause"
        ],
        "authors": [
            {
                "name": "Kartik Visweswaran",
                "email": "kartikv2@gmail.com",
                "homepage": "http://www.krajee.com/"
            }
        ],
        "description": "An enhanced editable widget for Yii 2.0 that allows easy editing of displayed data with numerous configuration possibilities.",
        "homepage": "https://github.com/kartik-v/yii2-editable",
        "keywords": [
            "bootstrap",
            "editable",
            "input",
            "jquery",
            "popover",
            "popover-x",
            "widget"
        ]
    },
    {
        "name": "kartik-v/mpdf",
        "version": "v1.0.2",
        "version_normalized": "1.0.2.0",
        "source": {
            "type": "git",
            "url": "https://github.com/kartik-v/mpdf.git",
            "reference": "6ab0ae3a82673e514f168c8e6da02289e6d95f2c"
        },
        "dist": {
            "type": "zip",
            "url": "https://api.github.com/repos/kartik-v/mpdf/zipball/6ab0ae3a82673e514f168c8e6da02289e6d95f2c",
            "reference": "6ab0ae3a82673e514f168c8e6da02289e6d95f2c",
            "shasum": ""
        },
        "require": {
            "ext-mbstring": "*",
            "php": ">=4.3.10"
        },
        "time": "2015-05-05 07:34:49",
        "type": "library",
        "installation-source": "dist",
        "autoload": {
            "classmap": [
                "mpdf.php",
                "classes"
            ]
        },
        "notification-url": "https://packagist.org/downloads/",
        "license": [
            "GPL-1.0+"
        ],
        "authors": [
            {
                "name": "Ian N Back"
            }
        ],
        "description": "A PHP class to generate PDF files from HTML with Unicode/UTF-8 and CJK support. This is a fork of the official mPDF library.",
        "homepage": "http://www.mpdf1.com/mpdf/index.php",
        "keywords": [
            "pdf",
            "php",
            "utf-8"
        ]
    },
    {
        "name": "kartik-v/yii2-mpdf",
        "version": "v1.0.0",
        "version_normalized": "1.0.0.0",
        "source": {
            "type": "git",
            "url": "https://github.com/kartik-v/yii2-mpdf.git",
            "reference": "4599a1d95d7e0afb3279322e302717b7e4f52dd3"
        },
        "dist": {
            "type": "zip",
            "url": "https://api.github.com/repos/kartik-v/yii2-mpdf/zipball/4599a1d95d7e0afb3279322e302717b7e4f52dd3",
            "reference": "4599a1d95d7e0afb3279322e302717b7e4f52dd3",
            "shasum": ""
        },
        "require": {
            "kartik-v/mpdf": "*"
        },
        "time": "2014-11-10 18:09:37",
        "type": "yii2-extension",
        "installation-source": "dist",
        "autoload": {
            "psr-4": {
                "kartik\\mpdf\\": ""
            }
        },
        "notification-url": "https://packagist.org/downloads/",
        "license": [
            "BSD 3-Clause"
        ],
        "authors": [
            {
                "name": "Kartik Visweswaran",
                "email": "kartikv2@gmail.com",
                "homepage": "http://www.krajee.com/"
            }
        ],
        "description": "A Yii2 wrapper component for the mPDF library which generates PDF files from UTF-8 encoded HTML.",
        "homepage": "https://github.com/kartik-v/yii2-mpdf",
        "keywords": [
            "component",
            "extension",
            "html",
            "mpdf",
            "pdf",
            "utf8",
            "yii2"
        ]
    },
    {
        "name": "kartik-v/yii2-grid",
        "version": "v3.0.4",
        "version_normalized": "3.0.4.0",
        "source": {
            "type": "git",
            "url": "https://github.com/kartik-v/yii2-grid.git",
            "reference": "8d596b9e5458291786677618b7fe9d5b84de4aa5"
        },
        "dist": {
            "type": "zip",
            "url": "https://api.github.com/repos/kartik-v/yii2-grid/zipball/8d596b9e5458291786677618b7fe9d5b84de4aa5",
            "reference": "8d596b9e5458291786677618b7fe9d5b84de4aa5",
            "shasum": ""
        },
        "require": {
            "kartik-v/yii2-krajee-base": "~1.7"
        },
        "time": "2015-06-24 05:23:50",
        "type": "yii2-extension",
        "installation-source": "dist",
        "autoload": {
            "psr-4": {
                "kartik\\grid\\": ""
            }
        },
        "notification-url": "https://packagist.org/downloads/",
        "license": [
            "BSD-3-Clause"
        ],
        "authors": [
            {
                "name": "Kartik Visweswaran",
                "email": "kartikv2@gmail.com",
                "homepage": "http://www.krajee.com/"
            }
        ],
        "description": "Yii 2 GridView on steroids. Various enhancements and utilities for the Yii 2.0 GridView widget.",
        "homepage": "https://github.com/kartik-v/yii2-grid",
        "keywords": [
            "extension",
            "grid",
            "widget",
            "yii2"
        ]
    },
    {
        "name": "johnitvn/yii2-ajaxcrud",
        "version": "2.0.3",
        "version_normalized": "2.0.3.0",
        "source": {
            "type": "git",
            "url": "https://github.com/johnitvn/yii2-ajaxcrud.git",
            "reference": "e1091be1b408c36885a1430c702f6abf85b2229e"
        },
        "dist": {
            "type": "zip",
            "url": "https://api.github.com/repos/johnitvn/yii2-ajaxcrud/zipball/e1091be1b408c36885a1430c702f6abf85b2229e",
            "reference": "e1091be1b408c36885a1430c702f6abf85b2229e",
            "shasum": ""
        },
        "require": {
            "kartik-v/yii2-editable": "1.7.2",
            "kartik-v/yii2-grid": "3.0.4",
            "kartik-v/yii2-mpdf": "v1.0.0",
            "yiisoft/yii2": "~2.0.4",
            "yiisoft/yii2-bootstrap": "*",
            "yiisoft/yii2-gii": "~2.0.4"
        },
        "time": "2015-07-19 09:59:17",
        "type": "yii2-extension",
        "extra": {
            "bootstrap": "johnitvn\\ajaxcrud\\Bootstrap"
        },
        "installation-source": "dist",
        "autoload": {
            "psr-4": {
                "johnitvn\\ajaxcrud\\": "src/"
            }
        },
        "notification-url": "https://packagist.org/downloads/",
        "license": [
            "Apache-2.0"
        ],
        "authors": [
            {
                "name": "John Martin",
                "email": "john.itvn@gmail.com",
                "homepage": "https://github.com/johnitvn?tab=repositories"
            }
        ],
        "description": "Gii CRUD template for Single Page Ajax Administration for yii2",
        "keywords": [
            "ajax",
            "crud",
            "database",
            "extension",
            "gii",
            "template",
            "yii2"
        ]
    },
    {
        "name": "johnitvn/yii2-user-plus",
        "version": "1.0.0rc",
        "version_normalized": "1.0.0.0-RC",
        "source": {
            "type": "git",
            "url": "https://github.com/johnitvn/yii2-user-plus.git",
            "reference": "c89a643f5285222f7b6d5877e80cc82cb3e766ad"
        },
        "dist": {
            "type": "zip",
            "url": "https://api.github.com/repos/johnitvn/yii2-user-plus/zipball/c89a643f5285222f7b6d5877e80cc82cb3e766ad",
            "reference": "c89a643f5285222f7b6d5877e80cc82cb3e766ad",
            "shasum": ""
        },
        "require": {
            "johnitvn/yii2-ajaxcrud": "2.0.3",
            "yiisoft/yii2": ">=2.0.4",
            "yiisoft/yii2-authclient": "~2.0",
            "yiisoft/yii2-bootstrap": "~2.0",
            "yiisoft/yii2-jui": "*",
            "yiisoft/yii2-swiftmailer": "~2.0"
        },
        "suggest": {
            "johnitvn/yii2-rbac-plus": "Database role base access control manager for yii2"
        },
        "time": "2015-07-26 15:13:19",
        "type": "yii2-extension",
        "extra": {
            "bootstrap": "johnitvn\\userplus\\Bootstrap"
        },
        "installation-source": "dist",
        "autoload": {
            "psr-4": {
                "johnitvn\\userplus\\": "src/"
            }
        },
        "notification-url": "https://packagist.org/downloads/",
        "license": [
            "Apache-2.0"
        ],
        "authors": [
            {
                "name": "John Martin",
                "email": "john.itvn@gmail.com",
                "homepage": "https://github.com/johnitvn?tab=repositories"
            }
        ],
        "description": "High flexible user management extension for yii2"
    },
    {
        "name": "johnitvn/yii2-rbac-plus",
        "version": "1.0.5",
        "version_normalized": "1.0.5.0",
        "source": {
            "type": "git",
            "url": "https://github.com/johnitvn/yii2-rbac-plus.git",
            "reference": "3debbe05dc25e88c178c3202eceae970ba67dede"
        },
        "dist": {
            "type": "zip",
            "url": "https://api.github.com/repos/johnitvn/yii2-rbac-plus/zipball/3debbe05dc25e88c178c3202eceae970ba67dede",
            "reference": "3debbe05dc25e88c178c3202eceae970ba67dede",
            "shasum": ""
        },
        "require": {
            "johnitvn/yii2-ajaxcrud": ">=2.0.0",
            "yiisoft/yii2": ">=2.0.4"
        },
        "suggest": {
            "johnitvn/yii2-user-plus": "High flexible user management extension for yii2"
        },
        "time": "2015-09-08 15:50:11",
        "type": "yii2-extension",
        "extra": {
            "bootstrap": "johnitvn\\rbacplus\\Bootstrap"
        },
        "installation-source": "dist",
        "autoload": {
            "psr-4": {
                "johnitvn\\rbacplus\\": "src/"
            }
        },
        "notification-url": "https://packagist.org/downloads/",
        "license": [
            "Apache-2.0"
        ],
        "authors": [
            {
                "name": "John Martin",
                "email": "john.itvn@gmail.com",
                "homepage": "https://github.com/johnitvn?tab=repositories"
            }
        ],
        "description": "Database role base access control manager for yii2"
    },
    {
        "name": "bshaffer/oauth2-server-php",
        "version": "v1.8.0",
        "version_normalized": "1.8.0.0",
        "source": {
            "type": "git",
            "url": "https://github.com/bshaffer/oauth2-server-php.git",
            "reference": "058c98f73209f9c49495e1799d32c035196fe8b8"
        },
        "dist": {
            "type": "zip",
            "url": "https://api.github.com/repos/bshaffer/oauth2-server-php/zipball/058c98f73209f9c49495e1799d32c035196fe8b8",
            "reference": "058c98f73209f9c49495e1799d32c035196fe8b8",
            "shasum": ""
        },
        "require": {
            "php": ">=5.3.9"
        },
        "suggest": {
            "aws/aws-sdk-php": "~2.8 is required to use the DynamoDB storage engine",
            "firebase/php-jwt": "~2.2 is required to use JWT features",
            "predis/predis": "Required to use the Redis storage engine",
            "thobbs/phpcassa": "Required to use the Cassandra storage engine"
        },
        "time": "2015-09-18 18:05:10",
        "type": "library",
        "installation-source": "dist",
        "autoload": {
            "psr-0": {
                "OAuth2": "src/"
            }
        },
        "notification-url": "https://packagist.org/downloads/",
        "license": [
            "MIT"
        ],
        "authors": [
            {
                "name": "Brent Shaffer",
                "email": "bshafs@gmail.com",
                "homepage": "http://brentertainment.com"
            }
        ],
        "description": "OAuth2 Server for PHP",
        "homepage": "http://github.com/bshaffer/oauth2-server-php",
        "keywords": [
            "auth",
            "oauth",
            "oauth2"
        ]
    },
    {
        "name": "filsh/yii2-oauth2-server",
        "version": "2.0.1",
        "version_normalized": "2.0.1.0",
        "source": {
            "type": "git",
            "url": "https://github.com/Filsh/yii2-oauth2-server.git",
            "reference": "e05fff97252f9e067cf0eae276ea36e9e87ae3e2"
        },
        "dist": {
            "type": "zip",
            "url": "https://api.github.com/repos/Filsh/yii2-oauth2-server/zipball/e05fff97252f9e067cf0eae276ea36e9e87ae3e2",
            "reference": "e05fff97252f9e067cf0eae276ea36e9e87ae3e2",
            "shasum": ""
        },
        "require": {
            "bshaffer/oauth2-server-php": "~1.7",
            "yiisoft/yii2": "*"
        },
        "time": "2015-06-19 12:30:06",
        "type": "yii2-extension",
        "extra": {
            "bootstrap": "filsh\\yii2\\oauth2server\\Bootstrap",
            "branch-alias": {
                "dev-master": "1.0.x-dev"
            }
        },
        "installation-source": "dist",
        "autoload": {
            "psr-4": {
                "filsh\\yii2\\oauth2server\\": ""
            }
        },
        "notification-url": "https://packagist.org/downloads/",
        "license": [
            "MIT"
        ],
        "authors": [
            {
                "name": "Igor Maliy",
                "email": "imaliy.filsh@gmail.com"
            }
        ],
        "description": "OAuth2 Server for PHP",
        "homepage": "https://github.com/filsh/yii2-oauth2-server",
        "keywords": [
            "extension",
            "module",
            "oauth",
            "oauth2",
            "yii"
        ]
    }
]
